<?xml version="1.0" encoding="UTF-8"?>
<model ref="r:6e683ce7-5a2d-4caa-bce4-13650e446a0b(org.clawiz.etl.common.language.constraints)">
  <persistence version="9" />
  <languages>
    <use id="3f4bc5f5-c6c1-4a28-8b10-c83066ffa4a1" name="jetbrains.mps.lang.constraints" version="4" />
    <devkit ref="00000000-0000-4000-0000-5604ebd4f22c(jetbrains.mps.devkit.aspect.constraints)" />
  </languages>
  <imports>
    <import index="lehn" ref="r:f00fd6de-b38e-411a-9521-a0b7f412e1e8(org.clawiz.core.common.language.structure)" />
    <import index="opwy" ref="r:3285c8a9-ec6d-4747-9589-295026f6398c(org.clawiz.etl.common.language.structure)" implicit="true" />
  </imports>
  <registry>
    <language id="3f4bc5f5-c6c1-4a28-8b10-c83066ffa4a1" name="jetbrains.mps.lang.constraints">
      <concept id="8401916545537438642" name="jetbrains.mps.lang.constraints.structure.InheritedNodeScopeFactory" flags="ng" index="1dDu$B">
        <reference id="8401916545537438643" name="kind" index="1dDu$A" />
      </concept>
      <concept id="1213093968558" name="jetbrains.mps.lang.constraints.structure.ConceptConstraints" flags="ng" index="1M2fIO">
        <reference id="1213093996982" name="concept" index="1M2myG" />
        <child id="1213100494875" name="referent" index="1Mr941" />
      </concept>
      <concept id="1148687176410" name="jetbrains.mps.lang.constraints.structure.NodeReferentConstraint" flags="ng" index="1N5Pfh">
        <reference id="1148687202698" name="applicableLink" index="1N5Vy1" />
        <child id="1148687345559" name="searchScopeFactory" index="1N6uqs" />
      </concept>
    </language>
    <language id="ceab5195-25ea-4f22-9b92-103b95ca8c0c" name="jetbrains.mps.lang.core">
      <concept id="1133920641626" name="jetbrains.mps.lang.core.structure.BaseConcept" flags="ng" index="2VYdi">
        <property id="1193676396447" name="virtualPackage" index="3GE5qa" />
      </concept>
    </language>
  </registry>
  <node concept="1M2fIO" id="3AEsidS5rGw">
    <property role="3GE5qa" value="job.step" />
    <ref role="1M2myG" to="opwy:2zqjo15lyhF" resolve="JobStep" />
  </node>
  <node concept="1M2fIO" id="3AEsidS5rGz">
    <property role="3GE5qa" value="job.step" />
    <ref role="1M2myG" to="opwy:2zqjo15lxLg" resolve="JobStepRef" />
    <node concept="1N5Pfh" id="1yNWL2q_dQU" role="1Mr941">
      <ref role="1N5Vy1" to="opwy:2zqjo15lxLh" resolve="jobStep" />
      <node concept="1dDu$B" id="5J_TEGDjURY" role="1N6uqs">
        <ref role="1dDu$A" to="opwy:2zqjo15lyhF" resolve="JobStep" />
      </node>
    </node>
  </node>
  <node concept="1M2fIO" id="fPT0jCsltu">
    <property role="3GE5qa" value="structure" />
    <ref role="1M2myG" to="opwy:2zqjo15lxLn" resolve="Structure" />
    <node concept="1N5Pfh" id="fPT0jCsltv" role="1Mr941">
      <ref role="1N5Vy1" to="opwy:fPT0jCslrT" resolve="recordIdField" />
      <node concept="1dDu$B" id="fPT0jCsltx" role="1N6uqs">
        <ref role="1dDu$A" to="opwy:2zqjo15lxLq" resolve="StructureField" />
      </node>
    </node>
  </node>
  <node concept="1M2fIO" id="fPT0jCsM6b">
    <property role="3GE5qa" value="job.step.action.load.type" />
    <ref role="1M2myG" to="opwy:fPT0jCsM4K" resolve="TypeDataLoadFieldMap" />
    <node concept="1N5Pfh" id="fPT0jCsM6c" role="1Mr941">
      <ref role="1N5Vy1" to="opwy:fPT0jCsM55" resolve="sourceField" />
      <node concept="1dDu$B" id="fPT0jCsM6e" role="1N6uqs">
        <ref role="1dDu$A" to="opwy:2zqjo15lxLq" resolve="StructureField" />
      </node>
    </node>
    <node concept="1N5Pfh" id="fPT0jCsM6g" role="1Mr941">
      <ref role="1N5Vy1" to="opwy:fPT0jCsM57" resolve="targetField" />
      <node concept="1dDu$B" id="fPT0jCsM6k" role="1N6uqs">
        <ref role="1dDu$A" to="lehn:6porqNrmPQb" resolve="TypeField" />
      </node>
    </node>
  </node>
</model>

